0000.000 (0) Opened log file at time: Fri, 29 Jan 2016 13:06:24 +0000 on http://adelya.trunk.wsextranet
0000.001 (0) UpdraftPlus WordPress backup plugin (https://updraftplus.com): 1.11.23 WP: 4.4.1 PHP: 5.3.29-1~dotdeb.0 (Linux serenity 2.6.32-5-amd64 #1 SMP Mon Jan 16 16:22:28 UTC 2012 x86_64) MySQL: 5.1.49 Server: Apache/2.2.16 (Debian) safe_mode: 0 max_execution_time: 900 memory_limit: 256M (used: 70.8M | 71.5M) multisite: N mcrypt: Y LANG: C ZipArchive::addFile: Y
0000.002 (0) Free space on disk containing Updraft's temporary directory: 32736.8 Mb
0000.004 (0) Tasks: Backup files: 1 (schedule: unset) Backup DB: 1 (schedule: unset)
0000.005 (0) Requesting semaphore lock (fd)
0000.006 (0) Set semaphore last lock (fd) time to 2016-01-29 13:06:24
0000.007 (0) Semaphore lock (fd) complete
0000.010 (0) Backup run: resumption=0, nonce=be67abca9a69, begun at=1454072784 (0s ago), job type=backup
0000.011 (0) Scheduling a resumption (1) after 300 seconds (1454073084) in case this run gets aborted
0000.020 (0) Checking if we have a zip executable available
0000.022 (0) Creation of backups of directories: beginning
0000.024 (0) Beginning creation of dump of plugins (split every: 400 Mb)
0000.109 (0) Total entities for the zip file: 419 directories, 2642 files (0 skipped as non-modified), 36.1 Mb
0000.118 (0) Zip: backup_2016-01-29-1406_Adelya_be67abca9a69-plugins.zip.tmp: 100 files added (on-disk size: 0 Kb)
0000.124 (0) Zip: backup_2016-01-29-1406_Adelya_be67abca9a69-plugins.zip.tmp: 200 files added (on-disk size: 0 Kb)
0000.131 (0) Zip: backup_2016-01-29-1406_Adelya_be67abca9a69-plugins.zip.tmp: 300 files added (on-disk size: 0 Kb)
0000.138 (0) Zip: backup_2016-01-29-1406_Adelya_be67abca9a69-plugins.zip.tmp: 400 files added (on-disk size: 0 Kb)
0000.146 (0) Zip: backup_2016-01-29-1406_Adelya_be67abca9a69-plugins.zip.tmp: 500 files added (on-disk size: 0 Kb)
0000.147 (0) Adding batch to zip file (UpdraftPlus_ZipArchive): over 500 files added on this batch (4.9 Mb, 2642 files batched, 501 (501) added so far); re-opening (prior size: 0 Kb)
0001.364 (0) Zip: backup_2016-01-29-1406_Adelya_be67abca9a69-plugins.zip.tmp: 600 files added (on-disk size: 1893.8 Kb)
0001.373 (0) Zip: backup_2016-01-29-1406_Adelya_be67abca9a69-plugins.zip.tmp: 700 files added (on-disk size: 1893.8 Kb)
0001.383 (0) Zip: backup_2016-01-29-1406_Adelya_be67abca9a69-plugins.zip.tmp: 800 files added (on-disk size: 1893.8 Kb)
0001.393 (0) Zip: backup_2016-01-29-1406_Adelya_be67abca9a69-plugins.zip.tmp: 900 files added (on-disk size: 1893.8 Kb)
0001.405 (0) Zip: backup_2016-01-29-1406_Adelya_be67abca9a69-plugins.zip.tmp: 1000 files added (on-disk size: 1893.8 Kb)
0001.405 (0) Adding batch to zip file (UpdraftPlus_ZipArchive): over 500 files added on this batch (8.5 Mb, 2642 files batched, 501 (1002) added so far); re-opening (prior size: 1893.8 Kb)
0004.053 (0) Zip: backup_2016-01-29-1406_Adelya_be67abca9a69-plugins.zip.tmp: 1100 files added (on-disk size: 4089.3 Kb)
0004.065 (0) Zip: backup_2016-01-29-1406_Adelya_be67abca9a69-plugins.zip.tmp: 1200 files added (on-disk size: 4089.3 Kb)
0004.077 (0) Zip: backup_2016-01-29-1406_Adelya_be67abca9a69-plugins.zip.tmp: 1300 files added (on-disk size: 4089.3 Kb)
0004.089 (0) Zip: backup_2016-01-29-1406_Adelya_be67abca9a69-plugins.zip.tmp: 1400 files added (on-disk size: 4089.3 Kb)
0004.101 (0) Zip: backup_2016-01-29-1406_Adelya_be67abca9a69-plugins.zip.tmp: 1500 files added (on-disk size: 4089.3 Kb)
0004.102 (0) Adding batch to zip file (UpdraftPlus_ZipArchive): over 500 files added on this batch (3.6 Mb, 2642 files batched, 501 (1503) added so far); re-opening (prior size: 4089.3 Kb)
0005.452 (0) Zip: backup_2016-01-29-1406_Adelya_be67abca9a69-plugins.zip.tmp: 1600 files added (on-disk size: 5286.9 Kb)
0005.464 (0) Zip: backup_2016-01-29-1406_Adelya_be67abca9a69-plugins.zip.tmp: 1700 files added (on-disk size: 5286.9 Kb)
0005.477 (0) Zip: backup_2016-01-29-1406_Adelya_be67abca9a69-plugins.zip.tmp: 1800 files added (on-disk size: 5286.9 Kb)
0005.491 (0) Zip: backup_2016-01-29-1406_Adelya_be67abca9a69-plugins.zip.tmp: 1900 files added (on-disk size: 5286.9 Kb)
0005.507 (0) Zip: backup_2016-01-29-1406_Adelya_be67abca9a69-plugins.zip.tmp: 2000 files added (on-disk size: 5286.9 Kb)
0005.508 (0) Adding batch to zip file (UpdraftPlus_ZipArchive): over 500 files added on this batch (5.3 Mb, 2642 files batched, 501 (2004) added so far); re-opening (prior size: 5286.9 Kb)
0006.471 (0) Zip: backup_2016-01-29-1406_Adelya_be67abca9a69-plugins.zip.tmp: 2100 files added (on-disk size: 7132.5 Kb)
0006.584 (0) Zip: backup_2016-01-29-1406_Adelya_be67abca9a69-plugins.zip.tmp: 2200 files added (on-disk size: 7132.5 Kb)
0006.600 (0) Zip: backup_2016-01-29-1406_Adelya_be67abca9a69-plugins.zip.tmp: 2300 files added (on-disk size: 7132.5 Kb)
0006.617 (0) Zip: backup_2016-01-29-1406_Adelya_be67abca9a69-plugins.zip.tmp: 2400 files added (on-disk size: 7132.5 Kb)
0006.634 (0) Zip: backup_2016-01-29-1406_Adelya_be67abca9a69-plugins.zip.tmp: 2500 files added (on-disk size: 7132.5 Kb)
0006.636 (0) Adding batch to zip file (UpdraftPlus_ZipArchive): over 500 files added on this batch (1.7 Mb, 2642 files batched, 501 (2505) added so far); re-opening (prior size: 7132.5 Kb)
0006.921 (0) Zip: backup_2016-01-29-1406_Adelya_be67abca9a69-plugins.zip.tmp: 2600 files added (on-disk size: 7823.2 Kb)
0008.220 (0) Created plugins zip (0) - 11382.5 Kb in 8.2 s (1389 Kb/s) (SHA1 checksum: 6b89980adf0c6984dcb0172d5d98d7615129fbe7)
0008.222 (0) Beginning creation of dump of themes (split every: 400 Mb)
0008.286 (0) Total entities for the zip file: 371 directories, 1854 files (0 skipped as non-modified), 23.4 Mb
0008.295 (0) Zip: backup_2016-01-29-1406_Adelya_be67abca9a69-themes.zip.tmp: 100 files added (on-disk size: 0 Kb)
0008.301 (0) Zip: backup_2016-01-29-1406_Adelya_be67abca9a69-themes.zip.tmp: 200 files added (on-disk size: 0 Kb)
0008.307 (0) Zip: backup_2016-01-29-1406_Adelya_be67abca9a69-themes.zip.tmp: 300 files added (on-disk size: 0 Kb)
0008.314 (0) Zip: backup_2016-01-29-1406_Adelya_be67abca9a69-themes.zip.tmp: 400 files added (on-disk size: 0 Kb)
0008.322 (0) Zip: backup_2016-01-29-1406_Adelya_be67abca9a69-themes.zip.tmp: 500 files added (on-disk size: 0 Kb)
0008.322 (0) Adding batch to zip file (UpdraftPlus_ZipArchive): over 500 files added on this batch (10 Mb, 1854 files batched, 501 (501) added so far); re-opening (prior size: 0 Kb)
0009.792 (0) Zip: backup_2016-01-29-1406_Adelya_be67abca9a69-themes.zip.tmp: 600 files added (on-disk size: 4820.8 Kb)
0009.801 (0) Zip: backup_2016-01-29-1406_Adelya_be67abca9a69-themes.zip.tmp: 700 files added (on-disk size: 4820.8 Kb)
0009.811 (0) Zip: backup_2016-01-29-1406_Adelya_be67abca9a69-themes.zip.tmp: 800 files added (on-disk size: 4820.8 Kb)
0009.821 (0) Zip: backup_2016-01-29-1406_Adelya_be67abca9a69-themes.zip.tmp: 900 files added (on-disk size: 4820.8 Kb)
0009.831 (0) Zip: backup_2016-01-29-1406_Adelya_be67abca9a69-themes.zip.tmp: 1000 files added (on-disk size: 4820.8 Kb)
0009.832 (0) Adding batch to zip file (UpdraftPlus_ZipArchive): over 500 files added on this batch (2.4 Mb, 1854 files batched, 501 (1002) added so far); re-opening (prior size: 4820.8 Kb)
0010.903 (0) Zip: backup_2016-01-29-1406_Adelya_be67abca9a69-themes.zip.tmp: 1100 files added (on-disk size: 5718.5 Kb)
0011.078 (0) Zip: backup_2016-01-29-1406_Adelya_be67abca9a69-themes.zip.tmp: 1200 files added (on-disk size: 5718.5 Kb)
0011.090 (0) Zip: backup_2016-01-29-1406_Adelya_be67abca9a69-themes.zip.tmp: 1300 files added (on-disk size: 5718.5 Kb)
0011.102 (0) Zip: backup_2016-01-29-1406_Adelya_be67abca9a69-themes.zip.tmp: 1400 files added (on-disk size: 5718.5 Kb)
0011.115 (0) Zip: backup_2016-01-29-1406_Adelya_be67abca9a69-themes.zip.tmp: 1500 files added (on-disk size: 5718.5 Kb)
0011.116 (0) Adding batch to zip file (UpdraftPlus_ZipArchive): over 500 files added on this batch (9.2 Mb, 1854 files batched, 501 (1503) added so far); re-opening (prior size: 5718.5 Kb)
0013.717 (0) Zip: backup_2016-01-29-1406_Adelya_be67abca9a69-themes.zip.tmp: 1600 files added (on-disk size: 7980.8 Kb)
0013.731 (0) Zip: backup_2016-01-29-1406_Adelya_be67abca9a69-themes.zip.tmp: 1700 files added (on-disk size: 7980.8 Kb)
0013.745 (0) Zip: backup_2016-01-29-1406_Adelya_be67abca9a69-themes.zip.tmp: 1800 files added (on-disk size: 7980.8 Kb)
0014.261 (0) Created themes zip (0) - 8566.4 Kb in 6 s (1419 Kb/s) (SHA1 checksum: 75036ef3a7b592fbd088a25c6c50dc51fcbdf667)
0014.263 (0) Exclusion option setting (uploads): backup*,*backups,backwpup*,wp-clone
0014.264 (0) Looking for candidates to back up in: /var/smb/clients/adelya/www-rev/trunk/wp-content/uploads
0014.265 (0) finding files: js_composer: adding to list (1)
0014.266 (0) finding files: 2016: adding to list (2)
0014.266 (0) Beginning creation of dump of uploads (split every: 400 Mb)
0014.269 (0) Total entities for the zip file: 3 directories, 4 files (0 skipped as non-modified), 0 Mb
0014.281 (0) Created uploads zip (0) - 14.4 Kb in 0 s (1075.2 Kb/s) (SHA1 checksum: c82129c5592b21bb1bcd520cb98242e5095d7e51)
0014.284 (0) Beginning backup of other directories found in the content directory (index: 0)
0014.285 (0) Exclusion option setting (others): upgrade,cache,updraft,backup*,*backups,mysql.sql,debug.log
0014.285 (0) Looking for candidates to back up in: /var/smb/clients/adelya/www-rev/trunk/wp-content
0014.286 (0) finding files: ._plugins: adding to list (1)
0014.287 (0) finding files: updraft: skipping: this is the updraft directory
0014.288 (0) finding files: upgrade: skipping: excluded by options
0014.288 (0) finding files: plugins: skipping: this is the plugins directory
0014.289 (0) finding files: uploads: skipping: this is the uploads directory
0014.290 (0) finding files: themes: skipping: this is the themes directory
0014.290 (0) finding files: index.php: adding to list (2)
0014.291 (0) finding files: ._languages: adding to list (3)
0014.292 (0) finding files: ._themes: adding to list (4)
0014.292 (0) finding files: languages: adding to list (5)
0014.296 (0) Total entities for the zip file: 3 directories, 22 files (0 skipped as non-modified), 1.5 Mb
0014.474 (0) Created others zip (0) - 443.1 Kb in 0.2 s (2452.2 Kb/s) (SHA1 checksum: 9e06a359d47ad43e7b97bcb1ea258687224c17e5)
0014.478 (0) Saving backup status to database (elements: 8)
0014.480 (0) Beginning creation of database dump (WordPress DB)
0014.482 (0) Testing: /usr/bin/mysqldump
0014.559 (0) Working binary mysqldump found: /usr/bin/mysqldump
0014.579 (0) Table wp_options: Total expected rows (approximate): 160
0014.601 (0) Table wp_options: Total rows added: 159 in 0.02 seconds
0014.602 (0) Table wp_options: finishing file (backup_2016-01-29-1406_Adelya_be67abca9a69-db-table-wp_options.table.gz - 57.5 Kb)
0014.605 (0) Table wp_users: Total expected rows (approximate): 1
0014.607 (0) Table wp_users: Total rows added: 1 in 0.00 seconds
0014.607 (0) Table wp_users: finishing file (backup_2016-01-29-1406_Adelya_be67abca9a69-db-table-wp_users.table.gz - 0.5 Kb)
0014.610 (0) Table wp_usermeta: Total expected rows (approximate): 26
0014.612 (0) Table wp_usermeta: Total rows added: 26 in 0.00 seconds
0014.613 (0) Table wp_usermeta: finishing file (backup_2016-01-29-1406_Adelya_be67abca9a69-db-table-wp_usermeta.table.gz - 1.2 Kb)
0014.616 (0) Table wp_commentmeta: Total expected rows (approximate): 0
0014.617 (0) Table wp_commentmeta: Total rows added: 0 in 0.00 seconds
0014.618 (0) Table wp_commentmeta: finishing file (backup_2016-01-29-1406_Adelya_be67abca9a69-db-table-wp_commentmeta.table.gz - 0.3 Kb)
0014.621 (0) Table wp_comments: Total expected rows (approximate): 1
0014.623 (0) Table wp_comments: Total rows added: 1 in 0.00 seconds
0014.624 (0) Table wp_comments: finishing file (backup_2016-01-29-1406_Adelya_be67abca9a69-db-table-wp_comments.table.gz - 0.7 Kb)
0014.627 (0) Table wp_links: Total expected rows (approximate): 0
0014.629 (0) Table wp_links: Total rows added: 0 in 0.00 seconds
0014.629 (0) Table wp_links: finishing file (backup_2016-01-29-1406_Adelya_be67abca9a69-db-table-wp_links.table.gz - 0.4 Kb)
0014.632 (0) Table wp_postmeta: Total expected rows (approximate): 325
0014.643 (0) Table wp_postmeta: Total rows added: 325 in 0.01 seconds
0014.644 (0) Table wp_postmeta: finishing file (backup_2016-01-29-1406_Adelya_be67abca9a69-db-table-wp_postmeta.table.gz - 5.3 Kb)
0014.647 (0) Table wp_posts: Total expected rows (approximate): 118
0014.678 (0) Table wp_posts: Total rows added: 118 in 0.03 seconds
0014.721 (0) Table wp_posts: finishing file (backup_2016-01-29-1406_Adelya_be67abca9a69-db-table-wp_posts.table.gz - 6.5 Kb)
0014.724 (0) Table wp_term_relationships: Total expected rows (approximate): 17
0014.735 (0) Table wp_term_relationships: Total rows added: 17 in 0.01 seconds
0014.735 (0) Table wp_term_relationships: finishing file (backup_2016-01-29-1406_Adelya_be67abca9a69-db-table-wp_term_relationships.table.gz - 0.4 Kb)
0014.738 (0) Table wp_term_taxonomy: Total expected rows (approximate): 5
0014.740 (0) Table wp_term_taxonomy: Total rows added: 5 in 0.00 seconds
0014.741 (0) Table wp_term_taxonomy: finishing file (backup_2016-01-29-1406_Adelya_be67abca9a69-db-table-wp_term_taxonomy.table.gz - 0.4 Kb)
0014.744 (0) Table wp_termmeta: Total expected rows (approximate): 0
0014.746 (0) Table wp_termmeta: Total rows added: 0 in 0.00 seconds
0014.747 (0) Table wp_termmeta: finishing file (backup_2016-01-29-1406_Adelya_be67abca9a69-db-table-wp_termmeta.table.gz - 0.3 Kb)
0014.749 (0) Table wp_terms: Total expected rows (approximate): 5
0014.751 (0) Table wp_terms: Total rows added: 5 in 0.00 seconds
0014.752 (0) Table wp_terms: finishing file (backup_2016-01-29-1406_Adelya_be67abca9a69-db-table-wp_terms.table.gz - 0.4 Kb)
0014.755 (0) backup_2016-01-29-1406_Adelya_be67abca9a69-db-table-wp_options.table.gz (1/12): adding to final database dump
0014.773 (0) backup_2016-01-29-1406_Adelya_be67abca9a69-db-table-wp_users.table.gz (2/12): adding to final database dump
0014.774 (0) backup_2016-01-29-1406_Adelya_be67abca9a69-db-table-wp_usermeta.table.gz (3/12): adding to final database dump
0014.775 (0) backup_2016-01-29-1406_Adelya_be67abca9a69-db-table-wp_commentmeta.table.gz (4/12): adding to final database dump
0014.776 (0) backup_2016-01-29-1406_Adelya_be67abca9a69-db-table-wp_comments.table.gz (5/12): adding to final database dump
0014.777 (0) backup_2016-01-29-1406_Adelya_be67abca9a69-db-table-wp_links.table.gz (6/12): adding to final database dump
0014.778 (0) backup_2016-01-29-1406_Adelya_be67abca9a69-db-table-wp_postmeta.table.gz (7/12): adding to final database dump
0014.782 (0) backup_2016-01-29-1406_Adelya_be67abca9a69-db-table-wp_posts.table.gz (8/12): adding to final database dump
0014.785 (0) backup_2016-01-29-1406_Adelya_be67abca9a69-db-table-wp_term_relationships.table.gz (9/12): adding to final database dump
0014.786 (0) backup_2016-01-29-1406_Adelya_be67abca9a69-db-table-wp_term_taxonomy.table.gz (10/12): adding to final database dump
0014.787 (0) backup_2016-01-29-1406_Adelya_be67abca9a69-db-table-wp_termmeta.table.gz (11/12): adding to final database dump
0014.788 (0) backup_2016-01-29-1406_Adelya_be67abca9a69-db-table-wp_terms.table.gz (12/12): adding to final database dump
0014.789 (0) backup_2016-01-29-1406_Adelya_be67abca9a69-db.gz: finished writing out complete database file (48 Kb)
0014.792 (0) Total database tables backed up: 12 (backup_2016-01-29-1406_Adelya_be67abca9a69-db.gz, size: 72790, checksum (SHA1): 2eb77ec5d680e0bd4df586a0b175889b583914cf)
0014.794 (0) Saving backup history
0014.797 (0) backup_2016-01-29-1406_Adelya_be67abca9a69-plugins.zip: plugins: This file has not yet been successfully uploaded: will queue
0014.798 (0) backup_2016-01-29-1406_Adelya_be67abca9a69-themes.zip: themes: This file has not yet been successfully uploaded: will queue
0014.798 (0) backup_2016-01-29-1406_Adelya_be67abca9a69-uploads.zip: uploads: This file has not yet been successfully uploaded: will queue
0014.799 (0) backup_2016-01-29-1406_Adelya_be67abca9a69-others.zip: others: This file has not yet been successfully uploaded: will queue
0014.800 (0) backup_2016-01-29-1406_Adelya_be67abca9a69-db.gz: db: This file has not yet been successfully uploaded: will queue
0014.802 (0) Requesting upload of the files that have not yet been successfully uploaded (5)
0014.804 (0) Cloud backup selection (1/1): none (last)
0014.804 (0) No remote despatch: user chose no remote backup service
0014.806 (0) Recording as successfully uploaded: backup_2016-01-29-1406_Adelya_be67abca9a69-plugins.zip (80b0ca4cb44fbd93ec7bc4b257a8486c)
0014.810 (0) Recording as successfully uploaded: backup_2016-01-29-1406_Adelya_be67abca9a69-themes.zip (cda238fae74dd37472d0fc80857624e6)
0014.814 (0) Recording as successfully uploaded: backup_2016-01-29-1406_Adelya_be67abca9a69-uploads.zip (23412e36a26f6f517a7ee422d44f98e0)
0014.817 (0) Recording as successfully uploaded: backup_2016-01-29-1406_Adelya_be67abca9a69-others.zip (0461061965621ab842519da83509f1f1)
0014.821 (0) Recording as successfully uploaded: backup_2016-01-29-1406_Adelya_be67abca9a69-db.gz (ed535eea621504749702939daf2c1dfe)
0014.825 (0) Retain: beginning examination of existing backup sets; user setting: retain_files=2, retain_db=2
0014.826 (0) Number of backup sets in history: 2
0014.827 (0) Examining backup set with datestamp: 1454072784 (Jan 29 2016 13:06:24)
0014.828 (0) This backup set (1454072784) is the backup set just made, so will not be deleted.
0014.828 (0) This backup set (1454072784) is the backup set just made, so will not be deleted, despite being over the retain limit.
0014.829 (0) This backup set (1454072784) is the backup set just made, so will not be deleted, despite being over the retain limit.
0014.829 (0) This backup set (1454072784) is the backup set just made, so will not be deleted, despite being over the retain limit.
0014.830 (0) This backup set (1454072784) is the backup set just made, so will not be deleted, despite being over the retain limit.
0014.830 (0) 1454072784: this backup set remains non-empty (1/1); will retain in history
0014.831 (0) Examining backup set with datestamp: 1453387336 (Jan 21 2016 14:42:16)
0014.831 (0) 1453387336: this backup set remains non-empty (1/1); will retain in history
0014.832 (0) Retain: saving new backup history (sets now: 2) and finishing retain operation
0014.835 (0) Resume backup (be67abca9a69, 0): finish run
0014.836 (0) Decremented the semaphore (fd) by 1
0014.837 (0) Semaphore (fd) unlocked
0014.837 (0) There were no errors in the uploads, so the 'resume' event (1) is being unscheduled
0014.840 (0) The backup apparently succeeded and is now complete
0014.840 (0) No email will/can be sent - the user has not configured an email address.
0014.841 (0) La sauvegarde a manifestement réussi et elle est complète
