getdown.txt = 0d6c0f7cd880fe02c9a1264c0da958a7
JBadger.jar = 5a54615b992255c4b86a3a412aa20dfd
lib/plugin.jar = 7ec698784fb2008a89f67f59e6b8f58b
lib/CardReader.jar = 92920491eccc0390677c66a57f5f5138
lib/java_websocket_custom.jar = 0225cfb00592a61f63057b5168f90fea
lib/tomcat-juli.jar = 4419973a02de0861fa902b165737bb77
CardReader.bat = b639c599533fd9feae0ba49d61a12cdb
CardReader.sh = 44a6055c1a7a9d7d6515cddf986c09f6
getdown.jar = d47a17cbd0f82fae501677a8bd6d4ffb
digest.txt = 4926ef3bc82b0493cafd3e54aa6ba5df
